Division,WeightClassKg,Place,Name,Team,BodyweightKg,Best3SquatKg,Best3BenchKg,Best3DeadliftKg,TotalKg,Equipment,Event,Sex
Boys,51.71,1,Isaiah Reyes,Plainview,51.07,124.74,77.11,140.61,342.46,Single-ply,SBD,M
Boys,51.71,2,Ezekiel Chavez,Abilene,48.17,106.59,79.38,117.93,303.91,Single-ply,SBD,M
Boys,51.71,DQ,Santos Figueroa,Plainview,51.26,142.88,,,,Single-ply,SBD,M
Boys,55.79,1,Avery Gallegos,Plainview,54.52,151.95,81.65,165.56,399.16,Single-ply,SBD,M
Boys,55.79,2,Nathan Urioste,Canyon Randall,55.52,129.27,79.38,140.61,349.27,Single-ply,SBD,M
Boys,55.79,3,Ethan Rodriguez,Midland Lee,54.79,102.06,86.18,131.54,319.78,Single-ply,SBD,M
Boys,55.79,4,Robert Hernandez,Abilene Cooper,53.25,111.13,68.04,136.08,315.25,Single-ply,SBD,M
Boys,55.79,5,Josiah Galvan,Abilene,54.98,122.47,58.97,124.74,306.17,Single-ply,SBD,M
Boys,55.79,6,Nick Turner,Abilene Cooper,55.79,106.59,74.84,111.13,292.57,Single-ply,SBD,M
Boys,55.79,7,Scott Sullivan,Midland Lee,52.62,90.72,70.31,120.2,281.23,Single-ply,SBD,M
Boys,55.79,8,Teagan Marlow,Midland,54.98,102.06,52.16,124.74,278.96,Single-ply,SBD,M
Boys,55.79,9,Corbin Otto,Abilene Cooper,52.71,102.06,52.16,106.59,260.82,Single-ply,SBD,M
Boys,59.87,1,Isaac Estrada,Odessa,59.24,167.83,113.4,174.63,455.86,Single-ply,SBD,M
Boys,59.87,2,Cysco Barrera,Plainview,59.87,165.56,77.11,188.24,430.91,Single-ply,SBD,M
Boys,59.87,3,Max Foster,Canyon Randall,58.69,124.74,81.65,172.37,378.75,Single-ply,SBD,M
Boys,59.87,4,Skyler Steen,Plainview,59.15,145.15,77.11,147.42,369.68,Single-ply,SBD,M
Boys,59.87,5,Adrian Martinez,Odessa,59.24,136.08,81.65,138.35,356.07,Single-ply,SBD,M
Boys,59.87,6,Alexis Delgado,Plainview,57.7,129.27,54.43,151.95,335.66,Single-ply,SBD,M
Boys,59.87,7,Christian Martin,Abilene Cooper,59.87,129.27,61.23,138.35,328.85,Single-ply,SBD,M
Boys,59.87,8,Izaiah Clark,Abilene Cooper,58.51,117.93,70.31,131.54,319.78,Single-ply,SBD,M
Boys,67.13,1,Luis Uruchutu,Canyon Randall,66.13,206.38,127.01,199.58,532.97,Single-ply,SBD,M
Boys,67.13,2,Jessus Menjivar,Abilene Cooper,63.41,197.31,108.86,183.7,489.88,Single-ply,SBD,M
Boys,67.13,3,Roberto Montez,Midland Lee,66.77,158.76,142.88,188.24,489.88,Single-ply,SBD,M
Boys,67.13,4,Benito Hernandez,Odessa,67.04,165.56,106.59,174.63,446.79,Single-ply,SBD,M
Boys,67.13,6,Marco Garza,Abilene Cooper,65.95,149.69,88.45,136.08,374.21,Single-ply,SBD,M
Boys,67.13,7,Andrew Bradley,Abilene Cooper,61.14,129.27,77.11,149.69,356.07,Single-ply,SBD,M
Boys,67.13,DQ,Chase Harris,Canyon Randall,65.59,131.54,,,,Single-ply,SBD,M
Boys,67.13,DQ,Faustino Lopez,Plainview,67.13,172.37,99.79,,,Single-ply,SBD,M
Boys,74.84,1,Slade Harris,Canyon Randall,73.12,254.01,165.56,242.67,662.24,Single-ply,SBD,M
Boys,74.84,2,Dagan Barella,Plainview,73.84,219.99,133.81,217.72,571.53,Single-ply,SBD,M
Boys,74.84,3,Gus Garcia,Plainview,74.57,199.58,138.35,206.38,544.31,Single-ply,SBD,M
Boys,74.84,4,Jonathon Gonzalez,Plainview,72.48,197.31,113.4,181.44,492.15,Single-ply,SBD,M
Boys,74.84,5,John Chavez,Plainview,74.84,181.44,117.93,183.7,483.08,Single-ply,SBD,M
Boys,74.84,6,Jorge Hernandez,Abilene,73.94,172.37,104.33,199.58,476.27,Single-ply,SBD,M
Boys,74.84,7,Javon Mathews,Midland,69.49,195.04,97.52,174.63,467.2,Single-ply,SBD,M
Boys,74.84,8,Julian Vizcaino,Odessa,73.75,151.95,102.06,172.37,426.38,Single-ply,SBD,M
Boys,74.84,9,Nimfasha Oliver,Abilene Cooper,70.4,174.63,70.31,163.29,408.23,Single-ply,SBD,M
Boys,74.84,DQ,Thomas Wells,Midland,71.49,145.15,65.77,158.76,,Single-ply,SBD,M
Boys,74.84,DQ,Oscar Sanchez,Odessa,73.84,183.7,104.33,,,Single-ply,SBD,M
Boys,74.84,DQ,Brady Miller,Abilene Cooper,74.84,142.88,,,,Single-ply,SBD,M
Boys,74.84,DQ,Perrin Hatcher,Midland Lee,74.03,,,,,Single-ply,SBD,M
Boys,74.84,DQ,Eric Soto,Plainview,73.12,,,,,Single-ply,SBD,M
Boys,82.1,1,Nestor Jimenez,Midland Lee,78.02,244.94,181.44,269.89,696.26,Single-ply,SBD,M
Boys,82.1,2,Jezreel Sanchez-Juarez,Odessa,80.74,206.38,127.01,233.6,566.99,Single-ply,SBD,M
Boys,82.1,3,Tyler Hairston,Lubbock Cooper,81.01,217.72,111.13,206.38,535.24,Single-ply,SBD,M
Boys,82.1,4,Ben Dunlap,Canyon Randall,80.56,195.04,127.01,208.65,530.7,Single-ply,SBD,M
Boys,82.1,5,Carson Freimuth,Lubbock,81.65,181.44,102.06,206.38,489.88,Single-ply,SBD,M
Boys,82.1,6,Marco Godino,Plainview,82.1,190.51,106.59,192.78,489.88,Single-ply,SBD,M
Boys,82.1,7,Michael Bartlett,Abilene,77.38,176.9,99.79,199.58,476.27,Single-ply,SBD,M
Boys,82.1,8,Leo Uresti,Midland Lee,78.65,163.29,115.67,190.51,469.47,Single-ply,SBD,M
Boys,82.1,DQ,Zion Ward,Midland,81.92,199.58,79.38,170.1,,Single-ply,SBD,M
Boys,82.1,DQ,Tyler Paris,Odessa,79.74,136.08,129.27,,,Single-ply,SBD,M
Boys,89.81,1,Caleb Frausto,Canyon Randall,84.46,226.8,183.7,231.33,641.83,Single-ply,SBD,M
Boys,89.81,2,Emile Niyonkuru,Abilene Cooper,83.91,231.33,133.81,222.26,587.4,Single-ply,SBD,M
Boys,89.81,3,Sergio Marguez,Plainview,88.9,219.99,136.08,222.26,578.33,Single-ply,SBD,M
Boys,89.81,4,Logan Duncan,Lubbock Cooper,87.72,219.99,131.54,204.12,555.65,Single-ply,SBD,M
Boys,89.81,5,Chris Pina,Midland Lee,88.72,204.12,142.88,192.78,539.77,Single-ply,SBD,M
Boys,89.81,6,Harlan Schafer,Plainview,89.45,195.04,124.74,195.04,514.83,Single-ply,SBD,M
Boys,89.81,7,Logan Pipkin,Lubbock Cooper,83.28,192.78,124.74,192.78,510.29,Single-ply,SBD,M
Boys,89.81,8,Jacob Deax,Abilene Cooper,84.01,185.97,113.4,210.92,510.29,Single-ply,SBD,M
Boys,89.81,10,Justin Rodriguez,Plainview,84.01,199.58,102.06,192.78,494.42,Single-ply,SBD,M
Boys,89.81,11,D Anthony Frankilin,Abilene,89.27,197.31,108.86,185.97,492.15,Single-ply,SBD,M
Boys,89.81,12,Gabe Oglesby,Lubbock Cooper,88.9,185.97,92.99,201.85,480.81,Single-ply,SBD,M
Boys,99.79,1,Sean Ramirez,Odessa Permian,98.88,290.3,174.63,249.48,714.41,Single-ply,SBD,M
Boys,99.79,2,D'Shae Casias,Plainview,97.61,258.55,142.88,219.99,621.42,Single-ply,SBD,M
Boys,99.79,3,Cameron Bednarz,Lubbock Cooper,92.9,226.8,142.88,231.33,601.01,Single-ply,SBD,M
Boys,99.79,4,Tommy Allmand,Abilene Cooper,93.26,256.28,149.69,195.04,601.01,Single-ply,SBD,M
Boys,99.79,5,Hayden Hall,Midland Lee,92.53,213.19,136.08,210.92,560.19,Single-ply,SBD,M
Boys,99.79,6,Jeremiah Vasquez,Lubbock,97.43,213.19,117.93,206.38,537.51,Single-ply,SBD,M
Boys,99.79,7,Saivion Cortez,Lubbock,97.98,210.92,113.4,213.19,537.51,Single-ply,SBD,M
Boys,99.79,8,Cody Farley,Abilene Cooper,99.61,183.7,99.79,183.7,467.2,Single-ply,SBD,M
Boys,99.79,DQ,Hector Montes,Midland Lee,97.34,238.14,156.49,,,Single-ply,SBD,M
Boys,99.79,DQ,Jorge Pegueros,Odessa Permian,94.35,204.12,,,,Single-ply,SBD,M
Boys,99.79,DQ,David Martinez #17,Odessa Permian,96.98,199.58,136.08,,,Single-ply,SBD,M
Boys,99.79,DQ,Gary Brooks,Odessa,94.53,,,,,Single-ply,SBD,M
Boys,109.77,1,Zach Bocanerga,Lubbock Cooper,103.69,276.69,176.9,238.14,691.73,Single-ply,SBD,M
Boys,109.77,2,Adrian Ramirez,Plainview,109.04,254.01,154.22,226.8,635.03,Single-ply,SBD,M
Boys,109.77,3,Zach Hellar,Midland Lee,109.77,233.6,151.95,201.85,587.4,Single-ply,SBD,M
Boys,109.77,4,Jorrian Moses,Abilene Cooper,102.6,231.33,138.35,208.65,578.33,Single-ply,SBD,M
Boys,109.77,5,Lucio Ramirez,Abilene,106.96,272.16,113.4,181.44,566.99,Single-ply,SBD,M
Boys,109.77,6,Javier Cabello,Odessa,107.23,213.19,136.08,217.72,566.99,Single-ply,SBD,M
Boys,109.77,8,Chris Omeire,Canyon Randall,104.69,224.53,131.54,199.58,555.65,Single-ply,SBD,M
Boys,109.77,9,Angel Rodríguez,Odessa,105.32,208.65,145.15,188.24,542.04,Single-ply,SBD,M
Boys,109.77,10,Colby Ernst,Abilene,105.05,192.78,127.01,192.78,512.56,Single-ply,SBD,M
Boys,109.77,DQ,Francisco Nave,Odessa,103.15,240.4,149.69,,,Single-ply,SBD,M
Boys,124.74,1,Bryan Martinez,Plainview,113.22,272.16,167.83,229.06,669.05,Single-ply,SBD,M
Boys,124.74,2,Colton Grimes,Abilene Cooper,110.22,249.48,167.83,222.26,639.57,Single-ply,SBD,M
Boys,124.74,3,Jacob Vasquez,Lubbock Cooper,111.95,247.21,145.15,247.21,639.57,Single-ply,SBD,M
Boys,124.74,4,Spencer Blue,Midland,123.74,240.4,142.88,244.94,628.23,Single-ply,SBD,M
Boys,124.74,5,Tim Dominguez,Plainview,111.22,238.14,142.88,231.33,612.35,Single-ply,SBD,M
Boys,124.74,6,Ryan Gofigan,Abilene Cooper,114.12,233.6,136.08,226.8,596.47,Single-ply,SBD,M
Boys,124.74,7,Justin Smith,Abilene Cooper,121.2,219.99,115.67,204.12,539.77,Single-ply,SBD,M
Boys,124.74,8,Chris Loya,Abilene,116.66,208.65,124.74,199.58,532.97,Single-ply,SBD,M
Boys,124.74,9,Lucas Gomez,Abilene,117.57,226.8,104.33,199.58,530.7,Single-ply,SBD,M
Boys,124.74,10,Isaiah Sanchez,Lubbock Cooper,115.67,226.8,129.27,151.95,508.02,Single-ply,SBD,M
Boys,124.74,DQ,Bradley Byrne,Abilene,110.04,208.65,,,,Single-ply,SBD,M
Boys,124.74+,1,Eric Cisneros,Midland Lee,145.24,285.76,172.37,240.4,698.53,Single-ply,SBD,M
Boys,124.74+,2,Devin Cosby,Abilene Cooper,133.99,256.28,158.76,244.94,659.98,Single-ply,SBD,M
Boys,124.74+,3,Gage McVey,Abilene Cooper,133.63,249.48,154.22,206.38,610.08,Single-ply,SBD,M
Boys,124.74+,4,Khalil Spivey,Abilene,141.88,272.16,111.13,208.65,591.94,Single-ply,SBD,M
Boys,124.74+,5,Norman Pallanes,Midland,139.07,256.28,113.4,217.72,587.4,Single-ply,SBD,M
Boys,124.74+,6,Ayden Visage,Lubbock Cooper,137.08,233.6,120.2,215.46,569.26,Single-ply,SBD,M
Boys,124.74+,7,Jacen Rodriguez,Lubbock,125.92,204.12,136.08,215.46,555.65,Single-ply,SBD,M
Boys,124.74+,8,Chase Rodriguez,Lubbock Cooper,146.87,215.46,136.08,195.04,546.58,Single-ply,SBD,M
Boys,124.74+,DQ,Jamie Rodriguez,Abilene,125.83,183.7,102.06,158.76,,Single-ply,SBD,M
Boys,124.74+,DQ,Ricardo Rios-Esparza,Abilene Cooper,139.16,247.21,129.27,,,Single-ply,SBD,M
