Name,BodyweightKg,Country,Best3SquatKg,Best3BenchKg,Best3DeadliftKg,TotalKg,Event,Equipment,DeadliftEquipment,Place,Sex
Viktor Naleykin,130.63,Ukraine,405,235,370,1010,SBD,Single-ply,Raw,1,M
Vladimir Ivanenko,113.4,Ukraine,390,230,320,940,SBD,Single-ply,,2,M
Naude,146.06,South Africa,350,205,320,875,SBD,Single-ply,,3,M
Ferguson,109.77,South Africa,310,187.5,305,802.5,SBD,Single-ply,,4,M
Coates,141.07,USA,387.5,,,,SBD,Single-ply,,DQ,M
Robinson,132.9,South Africa,320,,,,SBD,Single-ply,,DQ,M
