Division,WeightClassKg,Place,Name,Team,BodyweightKg,Best3SquatKg,Best3BenchKg,Best3DeadliftKg,TotalKg,Equipment,Event,Sex
Boys,51.71,1,Justin Pilgrim,White Oak,41.91,74.84,43.09,83.91,201.85,Single-ply,SBD,M
Boys,55.79,1,Garrett Plumlee,Longview Spring Hill,55.79,115.67,68.04,124.74,308.44,Single-ply,SBD,M
Boys,55.79,2,Kyle Collens,Gladewater Sabine,55.34,74.84,49.9,113.4,238.14,Single-ply,SBD,M
Boys,55.79,3,Tyler Smigiel,Diana New Diana,53.16,49.9,,,49.9,Single-ply,S,M
Boys,67.13,1,Nick McKee,Longview Spring Hill,59.96,127.01,83.91,142.88,353.8,Single-ply,SBD,M
Boys,67.13,2,Jesse Reeves,White Oak,60.06,111.13,63.5,129.27,303.91,Single-ply,SBD,M
Boys,59.87,3,J. Rogers,White Oak,56.43,79.38,,,79.38,Single-ply,S,M
Boys,67.13,1,Cory Davis,Diana New Diana,65.86,190.51,97.52,181.44,469.47,Single-ply,SBD,M
Boys,74.84,2,Quade Taliaferro,Gladewater Sabine,67.36,147.42,95.25,149.69,392.36,Single-ply,SBD,M
Boys,74.84,3,Brandon Glenn,Big Sandy Harmony,67.36,147.42,83.91,136.08,367.41,Single-ply,SBD,M
Boys,67.13,4,Dustin Harrison,White Oak,66.41,133.81,79.38,142.88,356.07,Single-ply,SBD,M
Boys,74.84,5,Andrew Stuckey,Gladewater Sabine,67.31,74.84,58.97,99.79,233.6,Single-ply,SBD,M
Boys,67.13,6,Andrew Means,Big Sandy Harmony,60.6,124.74,,,124.74,Single-ply,S,M
Boys,74.84,1,Hayden Hughes,White Oak,71.76,158.76,97.52,185.97,442.25,Single-ply,SBD,M
Boys,74.84,2,Cason Fogle,Diana New Diana,72.94,151.95,111.13,172.37,435.45,Single-ply,SBD,M
Boys,74.84,3,Alec Pack,Longview Spring Hill,73.94,208.65,,208.65,417.3,Single-ply,SD,M
Boys,74.84,4,Gage Puckett,White Oak,74.3,136.08,77.11,172.37,385.55,Single-ply,SBD,M
Boys,74.84,5,Quatron Davis,Hallsville,71.67,151.95,95.25,136.08,383.29,Single-ply,SBD,M
Boys,74.84,6,Brandon Smalls,White Oak,67.68,138.35,90.72,142.88,371.95,Single-ply,SBD,M
Boys,74.84,7,Matt Gaston,Hallsville,70.22,120.2,95.25,142.88,358.34,Single-ply,SBD,M
Boys,74.84,8,Dylan Evans,Longview Spring Hill,71.12,122.47,77.11,142.88,342.46,Single-ply,SBD,M
Boys,74.84,9,Matt Hosea,Big Sandy Harmony,70.85,122.47,86.18,129.27,337.93,Single-ply,SBD,M
Boys,74.84,10,Jacob Smith,Hallsville,73.57,102.06,83.91,151.95,337.93,Single-ply,SBD,M
Boys,74.84,11,Garrett Hounsel,Diana New Diana,72.94,161.03,,172.37,333.39,Single-ply,SD,M
Boys,74.84,12,Dustin Koehns,White Oak,68.4,136.08,68.04,124.74,328.85,Single-ply,SBD,M
Boys,74.84,13,Jacob Deaguro,White Oak,69.85,136.08,97.52,,233.6,Single-ply,SB,M
Boys,74.84,DQ,Ty Evans,White Oak,71.21,90.72,58.97,113.4,,Single-ply,SBD,M
Boys,82.1,1,Josh Presson,White Oak,77.2,197.31,113.4,208.65,519.36,Single-ply,SBD,M
Boys,89.81,2,Derek McCuller,Hallsville,82.28,170.1,113.4,174.63,458.13,Single-ply,SBD,M
Boys,82.1,3,Dalton Huffman,Longview Spring Hill,78.93,151.95,97.52,158.76,408.23,Single-ply,SBD,M
Boys,82.1,4,Spencer Hendricks,Longview Spring Hill,82.1,145.15,102.06,154.22,401.43,Single-ply,SBD,M
Boys,89.81,5,Brandon Wesley,Diana New Diana,82.28,185.97,,185.97,371.95,Single-ply,SD,M
Boys,82.1,6,Jesse Navabro,Hallsville,75.57,129.27,102.06,136.08,367.41,Single-ply,SBD,M
Boys,82.1,7,Jacob Lindsey,Big Sandy Harmony,75.57,117.93,70.31,127.01,315.25,Single-ply,SBD,M
Boys,89.81,1,Roderick Boyd,Hallsville,87.91,215.46,127.01,185.97,528.44,Single-ply,SBD,M
Boys,89.81,2,Taylor Ligon,Diana New Diana,85.46,185.97,131.54,167.83,485.34,Single-ply,SBD,M
Boys,89.81,3,Zach Parnell,Gladewater Sabine,87.18,161.03,102.06,158.76,421.84,Single-ply,SBD,M
Boys,89.81,4,Alvaro Castillo,Gladewater Sabine,86.36,136.08,90.72,133.81,360.61,Single-ply,SBD,M
Boys,89.81,5,Grant Key,Gladewater Sabine,82.46,131.54,74.84,142.88,349.27,Single-ply,SBD,M
Boys,89.81,6,Jacob Whitworth,Gladewater Sabine,89.81,52.16,61.23,106.59,219.99,Single-ply,SBD,M
Boys,89.81,7,Dallas Green,Longview Spring Hill,87.45,165.56,,,165.56,Single-ply,S,M
Boys,99.79,1,Bobby Coons,Longview Spring Hill,93.35,188.24,120.2,165.56,474,Single-ply,SBD,M
Boys,99.79,2,Baker Knight,Longview Spring Hill,93.35,170.1,97.52,197.31,464.93,Single-ply,SBD,M
Boys,99.79,3,Tad Clark,Diana New Diana,98.61,172.37,88.45,181.44,442.25,Single-ply,SBD,M
Boys,99.79,4,Hagen Tucker,Longview Spring Hill,93.53,149.69,106.59,156.49,412.77,Single-ply,SBD,M
Boys,99.79,5,Oliver Tan,Gladewater Sabine,91.44,151.95,102.06,151.95,405.97,Single-ply,SBD,M
Boys,99.79,6,Cru Barnes,Diana New Diana,92.35,136.08,81.65,163.29,381.02,Single-ply,SBD,M
Boys,99.79,7,Stephen Godwin,Hallsville,92.53,183.7,,183.7,367.41,Single-ply,SD,M
Boys,99.79,8,Chris Myers,White Oak,93.44,142.88,70.31,154.22,367.41,Single-ply,SBD,M
Boys,99.79,9,Brandon Gann,Gladewater Sabine,92.35,129.27,83.91,131.54,344.73,Single-ply,SBD,M
Boys,99.79,10,Marco Newsome,Diana New Diana,96.07,147.42,,185.97,333.39,Single-ply,SD,M
Boys,99.79,11,Anthony Munoz,White Oak,91.26,142.88,68.04,102.06,312.98,Single-ply,SBD,M
Boys,99.79,12,Jacob Reed,Gladewater Sabine,90.63,102.06,77.11,129.27,308.44,Single-ply,SBD,M
Boys,99.79,13,Brett Dabaca,Longview Spring Hill,91.26,136.08,,149.69,285.76,Single-ply,SD,M
Boys,109.77,1,Jeff Davis,White Oak,108.95,204.12,108.86,199.58,512.56,Single-ply,SBD,M
Boys,109.77,2,Morgan Knight,Longview Spring Hill,106.32,176.9,133.81,181.44,492.15,Single-ply,SBD,M
Boys,109.77,3,Justin Smith,Hallsville,100.52,183.7,113.4,167.83,464.93,Single-ply,SBD,M
Boys,109.77,4,Tray King,Hallsville,104.51,183.7,113.4,158.76,455.86,Single-ply,SBD,M
Boys,109.77,5,Trent Davis,Diana New Diana,104.6,142.88,97.52,206.38,446.79,Single-ply,SBD,M
Boys,109.77,6,Cody Duvall,Longview Spring Hill,107.5,181.44,90.72,170.1,442.25,Single-ply,SBD,M
Boys,109.77,7,Jason Heim,White Oak,106.87,183.7,90.72,163.29,437.72,Single-ply,SBD,M
Boys,109.77,8,Michael Wilbur,Hallsville,108.05,161.03,108.86,154.22,424.11,Single-ply,SBD,M
Boys,109.77,9,Trey Chain,White Oak,102.51,,81.65,120.2,201.85,Single-ply,BD,M
Boys,124.74,1,Lucas Roberts,Hallsville,112.76,172.37,124.74,170.1,467.2,Single-ply,SBD,M
Boys,124.74,2,Colton Brown,Gladewater Sabine,119.29,170.1,102.06,181.44,453.59,Single-ply,SBD,M
Boys,124.74,3,McKellar Karr,Diana New Diana,111.77,106.59,92.99,142.88,342.46,Single-ply,SBD,M
Boys,124.74,DQ,L Owens,White Oak,111.49,129.27,95.25,111.13,,Single-ply,SBD,M
