Division,WeightClassKg,Place,Name,Team,BodyweightKg,Best3SquatKg,Best3BenchKg,Best3DeadliftKg,TotalKg,Equipment,Event,Sex
Boys,55.79,1,Blake Alford,Kyle Lehman,51.94,97.52,68.04,129.27,294.84,Single-ply,SBD,M
Boys,51.71,2,Justin Davis,Buda Hays,50.17,92.99,70.31,104.33,267.62,Single-ply,SBD,M
Boys,51.71,3,Luis Rios,Geronimo Navarro,45.36,81.65,63.5,117.93,263.08,Single-ply,SBD,M
Boys,55.79,4,Luis Mena,Del Valle,51.89,77.11,47.63,106.59,231.33,Single-ply,SBD,M
Boys,51.71,5,Jose Ramirez,Kyle Lehman,48.72,68.04,40.82,102.06,210.92,Single-ply,SBD,M
Boys,51.71,6,Tristan Larison,Lockhart,49.99,24.95,31.75,79.38,136.08,Single-ply,SBD,M
Boys,55.79,1,Josh Fantauzzi,Buda Hays,55.79,149.69,88.45,181.44,419.57,Single-ply,SBD,M
Boys,55.79,2,Thomas Mascorro,San Marcos,55.07,136.08,68.04,165.56,369.68,Single-ply,SBD,M
Boys,59.87,3,Josh Estrada,Gonzales,55.88,120.2,77.11,136.08,333.39,Single-ply,SBD,M
Boys,55.79,4,Branden Abercrombie,Del Valle,55.79,102.06,61.23,115.67,278.96,Single-ply,SBD,M
Boys,55.79,5,Dalton Couch,Gonzales,54.98,83.91,56.7,129.27,269.89,Single-ply,SBD,M
Boys,55.79,6,Ellis Perry,Lockhart,55.16,77.11,61.23,102.06,240.4,Single-ply,SBD,M
Boys,59.87,DQ,Josh Ramirez,Kyle Lehman,55.88,,70.31,142.88,,Single-ply,SBD,M
Boys,59.87,1,Chris Jackson,Lockhart,59.87,156.49,102.06,176.9,435.45,Single-ply,SBD,M
Boys,67.13,2,Pedro Carreon,Geronimo Navarro,59.96,147.42,104.33,181.44,433.18,Single-ply,SBD,M
Boys,59.87,3,Kevin Machie,Dripping Springs,59.33,136.08,72.57,147.42,356.07,Single-ply,SBD,M
Boys,59.87,4,Celestino Hernandez,Del Valle,56.7,111.13,61.23,102.06,274.42,Single-ply,SBD,M
Boys,59.87,5,Courtney Anderson,San Marcos,57.06,83.91,54.43,61.23,199.58,Single-ply,SBD,M
Boys,59.87,DQ,Alvin Martinez,Del Valle,59.78,,,,,Single-ply,SBD,M
Boys,59.87,DQ,Brandon Alford,Kyle Lehman,59.87,170.1,,,,Single-ply,SBD,M
Boys,67.13,1,Matt Maldonado,Del Valle,66.41,170.1,102.06,192.78,464.93,Single-ply,SBD,M
Boys,67.13,2,Ty Smith,Dripping Springs,66.86,158.76,81.65,174.63,415.04,Single-ply,SBD,M
Boys,67.13,3,Evan DeLeon,Geronimo Navarro,65.32,147.42,90.72,170.1,408.23,Single-ply,SBD,M
Boys,67.13,4,Tanner Robinson,Lockhart,67.13,158.76,83.91,165.56,408.23,Single-ply,SBD,M
Boys,74.84,5,George Olivo,Gonzales,67.31,124.74,99.79,147.42,371.95,Single-ply,SBD,M
Boys,74.84,6,Quavon Stevens,Del Valle,67.31,120.2,79.38,142.88,342.46,Single-ply,SBD,M
Boys,67.13,7,Jared Self,Buda Hays,65.41,124.74,77.11,127.01,328.85,Single-ply,SBD,M
Boys,67.13,8,Robert Hernandez,San Marcos,66.59,111.13,70.31,124.74,306.17,Single-ply,SBD,M
Boys,74.84,9,Gunner Brown,Lockhart,67.36,95.25,68.04,122.47,285.76,Single-ply,SBD,M
Boys,74.84,DQ,Eddie Suarez,San Marcos,69.85,,,,,Single-ply,SBD,M
Boys,74.84,2,David Wren,Dripping Springs,74.48,179.17,113.4,204.12,496.68,Single-ply,SBD,M
Boys,74.84,3,Hough Taylor,Buda Hays,70.13,181.44,108.86,179.17,469.47,Single-ply,SBD,M
Boys,74.84,4,Jaydon Nichols,Del Valle,74.66,158.76,113.4,174.63,446.79,Single-ply,SBD,M
Boys,74.84,5,Jay Leal,Geronimo Navarro,71.94,165.56,95.25,179.17,439.98,Single-ply,SBD,M
Boys,74.84,6,Josh Cleveland,Del Valle,72.94,156.49,102.06,176.9,435.45,Single-ply,SBD,M
Boys,74.84,7,Jacob Rodriguez,Geronimo Navarro,74.03,154.22,95.25,161.03,410.5,Single-ply,SBD,M
Boys,74.84,8,Mike Castillo,Geronimo Navarro,74.66,145.15,99.79,154.22,399.16,Single-ply,SBD,M
Boys,74.84,9,Nick Tamez,Kyle Lehman,70.4,120.2,88.45,158.76,367.41,Single-ply,SBD,M
Boys,74.84,10,Sebastian Lamas,Lockhart,68.76,102.06,70.31,124.74,297.1,Single-ply,SBD,M
Boys,82.1,DQ,Easton Bauer,Dripping Springs,75.02,163.29,,,,Single-ply,SBD,M
Boys,89.81,1,Omar Pereyra,Dripping Springs,82.33,204.12,136.08,226.8,566.99,Single-ply,SBD,M
Boys,89.81,2,Mark Trevino,Kyle Lehman,82.33,206.38,136.08,199.58,542.04,Single-ply,SBD,M
Boys,82.1,3,Hayden Eskew,Buda Hays,76.38,174.63,140.61,183.7,498.95,Single-ply,SBD,M
Boys,82.1,4,David Burns,Dripping Springs,78.2,158.76,97.52,174.63,430.91,Single-ply,SBD,M
Boys,82.1,5,Ben Mitchell,Kyle Lehman,78.93,136.08,95.25,183.7,415.04,Single-ply,SBD,M
Boys,89.81,6,Clark Flinn,Geronimo Navarro,82.28,154.22,88.45,124.74,367.41,Single-ply,SBD,M
Boys,82.1,7,Austin Isaac,Geronimo Navarro,79.2,138.35,83.91,138.35,360.61,Single-ply,SBD,M
Boys,82.1,8,Marcus Johnson,Lockhart,78.2,124.74,83.91,138.35,347,Single-ply,SBD,M
Boys,82.1,9,Joshua Mercado,San Marcos,81.83,113.4,92.99,136.08,342.46,Single-ply,SBD,M
Boys,82.1,10,Chris Boeker,Lockhart,78.47,70.31,61.23,111.13,242.67,Single-ply,SBD,M
Boys,82.1,NS,Gj Ticheli,San Marcos,,,,,,Single-ply,SBD,M
Boys,82.1,DQ,Valentine Cantu,Kyle Lehman,78.83,158.76,,,,Single-ply,SBD,M
Boys,89.81,DQ,Justin Hatfield,Geronimo Navarro,82.28,142.88,,,,Single-ply,SBD,M
Boys,89.81,DQ,Zach Foreman,Dripping Springs,82.24,,,,,Single-ply,SBD,M
Boys,82.1,DQ,Dominic Robledo,Del Valle,77.93,106.59,,,,Single-ply,SBD,M
Boys,89.81,1,Ethan Martin,Kyle Lehman,86.73,,124.74,235.87,360.61,Single-ply,BD,M
Boys,89.81,2,Hunter Noack,Gonzales,84.82,199.58,113.4,222.26,535.24,Single-ply,SBD,M
Boys,89.81,3,Marlin O'Neal,Dripping Springs,89.45,192.78,127.01,215.46,535.24,Single-ply,SBD,M
Boys,99.79,4,Steven Kittle,Dripping Springs,90.04,188.24,117.93,215.46,521.63,Single-ply,SBD,M
Boys,89.81,5,Tanner Brown,Lockhart,88.22,192.78,111.13,197.31,501.22,Single-ply,SBD,M
Boys,99.79,6,Curtis Hawkins,Lockhart,90.04,190.51,111.13,183.7,485.34,Single-ply,SBD,M
Boys,89.81,7,Tyler Morgan,Gonzales,89.36,158.76,108.86,174.63,442.25,Single-ply,SBD,M
Boys,89.81,8,JT Miller,Gonzales,88.09,158.76,83.91,181.44,424.11,Single-ply,SBD,M
Boys,99.79,9,Grant Schlaht,Lockhart,90.04,154.22,95.25,156.49,405.97,Single-ply,SBD,M
Boys,89.81,10,Justin Torres,Lockhart,89.45,145.15,95.25,163.29,403.7,Single-ply,SBD,M
Boys,99.79,1,Landon Lock,Gonzales,91.99,249.48,136.08,260.82,646.37,Single-ply,SBD,M
Boys,99.79,2,Drew Peterson,Dripping Springs,93.44,226.8,140.61,226.8,594.21,Single-ply,SBD,M
Boys,99.79,3,Rihl Dougherty,Dripping Springs,98.25,204.12,136.08,204.12,544.31,Single-ply,SBD,M
Boys,99.79,4,Levi Mair,Lockhart,97.98,204.12,115.67,192.78,512.56,Single-ply,SBD,M
Boys,99.79,5,Javier Esparza,Geronimo Navarro,93.53,158.76,113.4,185.97,458.13,Single-ply,SBD,M
Boys,99.79,6,Conner Roe,Geronimo Navarro,93.71,161.03,108.86,170.1,439.98,Single-ply,SBD,M
Boys,99.79,7,Hunter Dees,Lockhart,94.26,102.06,63.5,120.2,285.76,Single-ply,SBD,M
Boys,109.77,1,Jordan Huckaby,Lockhart,102.06,204.12,147.42,231.33,582.87,Single-ply,SBD,M
Boys,109.77,2,Cruz Banda,Kyle Lehman,108.23,226.8,129.27,201.85,557.92,Single-ply,SBD,M
Boys,109.77,3,Aurelio Garcia,Lockhart,108.41,213.19,129.27,215.46,557.92,Single-ply,SBD,M
Boys,109.77,4,Leron Hutto,San Marcos,104.96,199.58,115.67,226.8,542.04,Single-ply,SBD,M
Boys,109.77,5,Mike Nap,Dripping Springs,101.24,195.04,117.93,210.92,523.9,Single-ply,SBD,M
Boys,109.77,6,Cesar Juarez,Geronimo Navarro,109.04,195.04,115.67,197.31,508.02,Single-ply,SBD,M
Boys,109.77,7,Baily Rhoads,Buda Hays,106.23,188.24,108.86,181.44,478.54,Single-ply,SBD,M
Boys,109.77,8,David Velasquez,Geronimo Navarro,106.41,197.31,106.59,165.56,469.47,Single-ply,SBD,M
Boys,109.77,9,Jordan Johnson,Gonzales,104.51,124.74,108.86,147.42,381.02,Single-ply,SBD,M
Boys,124.74+,1,Ray Sedwick,Lockhart,124.87,231.33,154.22,226.8,612.35,Single-ply,SBD,M
Boys,124.74,2,Zach Perez-Clack,Gonzales,122.65,208.65,136.08,210.92,555.65,Single-ply,SBD,M
Boys,124.74,3,Jose Lira,Kyle Lehman,122.02,204.12,129.27,204.12,537.51,Single-ply,SBD,M
Boys,124.74,4,Jesse Benavides,San Marcos,111.49,185.97,111.13,163.29,460.4,Single-ply,SBD,M
Boys,124.74,5,Brian Dolezal,Gonzales,118.57,163.29,111.13,185.97,460.4,Single-ply,SBD,M
Boys,124.74,6,Gama Valdez,Buda Hays,115.67,161.03,131.54,149.69,442.25,Single-ply,SBD,M
Boys,124.74+,DQ,Kenny Higgins,Kyle Lehman,137.26,,,,,Single-ply,SBD,M
Boys,124.74+,2,Ryne Lehman,Lockhart,135.17,231.33,151.95,183.7,566.99,Single-ply,SBD,M
Boys,124.74+,3,Bobby Limon,Kyle Lehman,134.17,199.58,147.42,217.72,564.72,Single-ply,SBD,M
Boys,124.74+,4,Jackson Hoskins,Dripping Springs,136.89,197.31,127.01,195.04,519.36,Single-ply,SBD,M
Boys,124.74+,5,Jake Hickey,Lockhart,130.73,83.91,52.16,136.08,272.16,Single-ply,SBD,M
Boys,,NS,Eddie Gonzales,Gonzales,,,,,,Single-ply,SBD,M
Boys,,NS,Emanuel Avina,Buda Hays,,,,,,Single-ply,SBD,M
Boys,,NS,Barney Natividad,Del Valle,,,,,,Single-ply,SBD,M
Boys,,NS,Chris Hood,Del Valle,,,,,,Single-ply,SBD,M
Boys,,NS,Jeremy Trinidad,San Marcos,,,,,,Single-ply,SBD,M
